{
    "employees": [
      {
        "id": 1,
        "username": "username1",
        "password": "Test1234",
        "firstName": "John",
        "lastName": "Doe",
        "email": "john.doe@example.com",
        "birthDate": "1990-01-01",
        "basicSalary": 50000.0,
        "status": "active",
        "group": "cow",
        "description": "Lorem ipsum dolor sit amet, consectetur adipiscing elit. Fusce aliquam lorem eu nulla lobortis, sed gravida velit hendrerit."
      },
      {
        "id": 2,
        "username": "username2",
        "password": "Test1234",
        "firstName": "Jane",
        "lastName": "Smith",
        "email": "jane.smith@example.com",
        "birthDate": "1995-05-15",
        "basicSalary": 60000.0,
        "status": "active",
        "group": "goat",
        "description": "Lorem ipsum dolor sit amet, consectetur adipiscing elit. Fusce aliquam lorem eu nulla lobortis, sed gravida velit hendrerit."
      },
      {
        "id": 3,
        "username": "username3",
        "password": "Test1234",
        "firstName": "Michael",
        "lastName": "Johnson",
        "email": "michael.johnson@example.com",
        "birthDate": "1988-09-30",
        "basicSalary": 70000.0,
        "status": "inactive",
        "group": "cat",
        "description": "Lorem ipsum dolor sit amet, consectetur adipiscing elit. Fusce aliquam lorem eu nulla lobortis, sed gravida velit hendrerit."
      },
      {
        "id": 4,
        "username": "username4",
        "password": "Test1234",
        "firstName": "Emily",
        "lastName": "Brown",
        "email": "emily.brown@example.com",
        "birthDate": "1987-04-20",
        "basicSalary": 55000.0,
        "status": "active",
        "group": "rabbit",
        "description": "Lorem ipsum dolor sit amet, consectetur adipiscing elit. Fusce aliquam lorem eu nulla lobortis, sed gravida velit hendrerit."
      },
      {
        "id": 5,
        "username": "username5",
        "password": "Test1234",
        "firstName": "Daniel",
        "lastName": "Martinez",
        "email": "daniel.martinez@example.com",
        "birthDate": "1993-12-10",
        "basicSalary": 65000.0,
        "status": "inactive",
        "group": "snake",
        "description": "Lorem ipsum dolor sit amet, consectetur adipiscing elit. Fusce aliquam lorem eu nulla lobortis, sed gravida velit hendrerit."
      },
      {
        "id": 6,
        "username": "username6",
        "password": "Test1234",
        "firstName": "Olivia",
        "lastName": "Garcia",
        "email": "olivia.garcia@example.com",
        "birthDate": "1991-07-25",
        "basicSalary": 75000.0,
        "status": "active",
        "group": "tiger",
        "description": "Lorem ipsum dolor sit amet, consectetur adipiscing elit. Fusce aliquam lorem eu nulla lobortis, sed gravida velit hendrerit."
      },
      {
        "id": 7,
        "username": "username7",
        "password": "Test1234",
        "firstName": "William",
        "lastName": "Rodriguez",
        "email": "william.rodriguez@example.com",
        "birthDate": "1989-03-05",
        "basicSalary": 60000.0,
        "status": "active",
        "group": "lion",
        "description": "Lorem ipsum dolor sit amet, consectetur adipiscing elit. Fusce aliquam lorem eu nulla lobortis, sed gravida velit hendrerit."
      },
      {
        "id": 8,
        "username": "username8",
        "password": "Test1234",
        "firstName": "Sophia",
        "lastName": "Lopez",
        "email": "sophia.lopez@example.com",
        "birthDate": "1996-08-18",
        "basicSalary": 70000.0,
        "status": "inactive",
        "group": "bird",
        "description": "Lorem ipsum dolor sit amet, consectetur adipiscing elit. Fusce aliquam lorem eu nulla lobortis, sed gravida velit hendrerit."
      },
      {
        "id": 9,
        "username": "username9",
        "password": "Test1234",
        "firstName": "James",
        "lastName": "Hernandez",
        "email": "james.hernandez@example.com",
        "birthDate": "1992-02-14",
        "basicSalary": 55000.0,
        "status": "active",
        "group": "butterfly",
        "description": "Lorem ipsum dolor sit amet, consectetur adipiscing elit. Fusce aliquam lorem eu nulla lobortis, sed gravida velit hendrerit."
      },
      {
        "id": 10,
        "username": "username10",
        "password": "Test1234",
        "firstName": "Emma",
        "lastName": "Gonzalez",
        "email": "emma.gonzalez@example.com",
        "birthDate": "1986-10-30",
        "basicSalary": 65000.0,
        "status": "inactive",
        "group": "worm",
        "description": "Lorem ipsum dolor sit amet, consectetur adipiscing elit. Fusce aliquam lorem eu nulla lobortis, sed gravida velit hendrerit."
      },
      {
        "id": 11,
        "username": "username11",
        "password": "Test1234",
        "firstName": "Michael",
        "lastName": "Wilson",
        "email": "michael.wilson@example.com",
        "birthDate": "1994-06-15",
        "basicSalary": 75000.0,
        "status": "active",
        "group": "fish",
        "description": "Lorem ipsum dolor sit amet, consectetur adipiscing elit. Fusce aliquam lorem eu nulla lobortis, sed gravida velit hendrerit."
      },
      {
        "id": 12,
        "username": "username12",
        "password": "Test1234",
        "firstName": "Emily",
        "lastName": "Davis",
        "email": "emily.davis@example.com",
        "birthDate": "1997-12-01",
        "basicSalary": 60000.0,
        "status": "inactive",
        "group": "shark",
        "description": "Lorem ipsum dolor sit amet, consectetur adipiscing elit. Fusce aliquam lorem eu nulla lobortis, sed gravida velit hendrerit."
      },
      {
        "id": 13,
        "username": "username13",
        "password": "Test1234",
        "firstName": "Daniel",
        "lastName": "Martinez",
        "email": "daniel.martinez@example.com",
        "birthDate": "1993-04-20",
        "basicSalary": 70000.0,
        "status": "active",
        "group": "elephant",
        "description": "Lorem ipsum dolor sit amet, consectetur adipiscing elit. Fusce aliquam lorem eu nulla lobortis, sed gravida velit hendrerit."
      },
      {
        "id": 14,
        "username": "username14",
        "password": "Test1234",
        "firstName": "Olivia",
        "lastName": "Taylor",
        "email": "olivia.taylor@example.com", 
        "birthDate": "1989-08-12",
        "basicSalary": 55000.0,
        "status": "inactive",
        "group": "monkey",
        "description": "Lorem ipsum dolor sit amet, consectetur adipiscing elit. Fusce aliquam lorem eu nulla lobortis, sed gravida velit hendrerit."
      },
      {
        "id": 15,
        "username": "username15",
        "password": "Test1234",
        "firstName": "James",
        "lastName": "Anderson",
        "email": "james.anderson@example.com",
        "birthDate": "1991-02-28",
        "basicSalary": 65000.0,
        "status": "active",
        "group": "cat",
        "description": "Lorem ipsum dolor sit amet, consectetur adipiscing elit. Fusce aliquam lorem eu nulla lobortis, sed gravida velit hendrerit."
      },
      {
        "id": 16,
        "username": "username16",
        "password": "Test1234",
        "firstName": "Sophia",
        "lastName": "Thomas",
        "email": "sophia.thomas@example.com",
        "birthDate": "1996-09-05",
        "basicSalary": 75000.0,
        "status": "inactive",
        "group": "dog",
        "description": "Lorem ipsum dolor sit amet, consectetur adipiscing elit. Fusce aliquam lorem eu nulla lobortis, sed gravida velit hendrerit."
      },
      {
        "id": 17,
        "username": "username17",
        "password": "Test1234",
        "firstName": "Benjamin",
        "lastName": "Hernandez",
        "email": "benjamin.hernandez@example.com",
        "birthDate": "1994-07-22",
        "basicSalary": 60000.0,
        "status": "active",
        "group": "dolphin",
        "description": "Lorem ipsum dolor sit amet, consectetur adipiscing elit. Fusce aliquam lorem eu nulla lobortis, sed gravida velit hendrerit."
      },
      {
        "id": 18,
        "username": "username18",
        "password": "Test1234",
        "firstName": "Charlotte",
        "lastName": "Moore",
        "email": "charlotte.moore@example.com",
        "birthDate": "1992-11-12",
        "basicSalary": 70000.0,
        "status": "inactive",
        "group": "penguin",
        "description": "Lorem ipsum dolor sit amet, consectetur adipiscing elit. Fusce aliquam lorem eu nulla lobortis, sed gravida velit hendrerit."
      },
      {
        "id": 19,
        "username": "username19",
        "password": "Test1234",
        "firstName": "Evelyn",
        "lastName": "Jackson",
        "email": "evelyn.jackson@example.com",
        "birthDate": "1990-06-29",
        "basicSalary": 55000.0,
        "status": "active",
        "group": "fish",
        "description": "Lorem ipsum dolor sit amet, consectetur adipiscing elit. Fusce aliquam lorem eu nulla lobortis, sed gravida velit hendrerit."
      },
      {
        "id": 20,
        "username": "username20",
        "password": "Test1234",
        "firstName": "Harper",
        "lastName": "White",
        "email": "harper.white@example.com",
        "birthDate": "1988-12-17",
        "basicSalary": 65000.0,
        "status": "inactive",
        "group": "elephant",
        "description": "Lorem ipsum dolor sit amet, consectetur adipiscing elit. Fusce aliquam lorem eu nulla lobortis, sed gravida velit hendrerit."
      },
      {
        "id": 21,
        "username": "username21",
        "password": "Test1234",
        "firstName": "Amelia",
        "lastName": "Harris",
        "email": "amelia.harris@example.com",
        "birthDate": "1995-04-02",
        "basicSalary": 75000.0,
        "status": "active",
        "group": "fish",
        "description": "Lorem ipsum dolor sit amet, consectetur adipiscing elit. Fusce aliquam lorem eu nulla lobortis, sed gravida velit hendrerit."
      },
      {
        "id": 22,
        "username": "username22",
        "password": "Test1234",
        "firstName": "Ethan",
        "lastName": "Martin",
        "email": "ethan.martin@example.com",
        "birthDate": "1993-08-19",
        "basicSalary": 60000.0,
        "status": "inactive",
        "group": "fish",
        "description": "Lorem ipsum dolor sit amet, consectetur adipiscing elit. Fusce aliquam lorem eu nulla lobortis, sed gravida velit hendrerit."
      },
      {
        "id": 23,
        "username": "username23",
        "password": "Test1234",
        "firstName": "Alexander",
        "lastName": "Thompson",
        "email": "alexander.thompson@example.com",
        "birthDate": "1991-02-06",
        "basicSalary": 70000.0,
        "status": "active",
        "group": "fish",
        "description": "Lorem ipsum dolor sit amet, consectetur adipiscing elit. Fusce aliquam lorem eu nulla lobortis, sed gravida velit hendrerit."
      },
      {
        "id": 24,
        "username": "username24",
        "password": "Test1234",
        "firstName": "Ava",
        "lastName": "Garcia",
        "email": "ava.garcia@example.com",
        "birthDate": "1996-10-25",
        "basicSalary": 55000.0,
        "status": "inactive",
        "group": "fish",
        "description": "Lorem ipsum dolor sit amet, consectetur adipiscing elit. Fusce aliquam lorem eu nulla lobortis, sed gravida velit hendrerit."
      },
      {
        "id": 25,
        "username": "username25",
        "password": "Test1234",
        "firstName": "Henry",
        "lastName": "Martinez",
        "email": "henry.martinez@example.com",
        "birthDate": "1994-07-12",
        "basicSalary": 65000.0,
        "status": "active",
        "group": "fish",
        "description": "Lorem ipsum dolor sit amet, consectetur adipiscing elit. Fusce aliquam lorem eu nulla lobortis, sed gravida velit hendrerit."
      },
      {
        "id": 26,
        "username": "username26",
        "password": "Test1234",
        "firstName": "Olivia",
        "lastName": "Robinson",
        "email": "olivia.robinson@example.com",
        "birthDate": "1992-03-29",
        "basicSalary": 75000.0,
        "status": "inactive",
        "group": "fish",
        "description": "Lorem ipsum dolor sit amet, consectetur adipiscing elit. Fusce aliquam lorem eu nulla lobortis, sed gravida velit hendrerit."
      },
      {
        "id": 27,
        "username": "username27",
        "password": "Test1234",
        "firstName": "Isabella",
        "lastName": "Walker",
        "email": "isabella.walker@example.com",
        "birthDate": "1990-11-16",
        "basicSalary": 60000.0,
        "status": "active",
        "group": "fish",
        "description": "Lorem ipsum dolor sit amet, consectetur adipiscing elit. Fusce aliquam lorem eu nulla lobortis, sed gravida velit hendrerit."
      },
      {
        "id": 28,
        "username": "username28",
        "password": "Test1234",
        "firstName": "Charlotte",
        "lastName": "Turner",
        "email": "charlotte.turner@example.com",
        "birthDate": "1997-05-03",
        "basicSalary": 70000.0,
        "status": "inactive",
        "group": "fish",
        "description": "Lorem ipsum dolor sit amet, consectetur adipiscing elit. Fusce aliquam lorem eu nulla lobortis, sed gravida velit hendrerit."
      },
      {
        "id": 29,
        "username": "username29",
        "password": "Test1234",
        "firstName": "Mia",
        "lastName": "Perez",
        "email": "mia.perez@example.com",
        "birthDate": "1995-08-20",
        "basicSalary": 55000.0,
        "status": "active",
        "group": "fish",
        "description": "Lorem ipsum dolor sit amet, consectetur adipiscing elit. Fusce aliquam lorem eu nulla lobortis, sed gravida velit hendrerit."
      },
      {
        "id": 30,
        "username": "username30",
        "password": "Test1234",
        "firstName": "Evelyn",
        "lastName": "Hernandez",
        "email": "evelyn.hernandez@example.com",
        "birthDate": "1993-04-07",
        "basicSalary": 65000.0,
        "status": "inactive",
        "group": "fish",
        "description": "Lorem ipsum dolor sit amet, consectetur adipiscing elit. Fusce aliquam lorem eu nulla lobortis, sed gravida velit hendrerit."
      },
      {
        "id": 31,
        "username": "username31",
        "password": "Test1234",
        "firstName": "Harper",
        "lastName": "Lopez",
        "email": "harper.lopez@example.com",
        "birthDate": "1991-12-24",
        "basicSalary": 75000.0,
        "status": "active",
        "group": "fish",
        "description": "Lorem ipsum dolor sit amet, consectetur adipiscing elit. Fusce aliquam lorem eu nulla lobortis, sed gravida velit hendrerit."
      },
      {
        "id": 32,
        "username": "username32",
        "password": "Test1234",
        "firstName": "Ethan",
        "lastName": "Gonzalez",
        "email": "ethan.gonzalez@example.com",
        "birthDate": "1994-09-11",
        "basicSalary": 60000.0,
        "status": "inactive",
        "group": "fish",
        "description": "Lorem ipsum dolor sit amet, consectetur adipiscing elit. Fusce aliquam lorem eu nulla lobortis, sed gravida velit hendrerit."
      },
      {
        "id": 33,
        "username": "username33",
        "password": "Test1234",
        "firstName": "Alexander",
        "lastName": "Davis",
        "email": "alexander.davis@example.com",
        "birthDate": "1992-06-28",
        "basicSalary": 70000.0,
        "status": "active",
        "group": "fish",
        "description": "Lorem ipsum dolor sit amet, consectetur adipiscing elit. Fusce aliquam lorem eu nulla lobortis, sed gravida velit hendrerit."
      },
      {
        "id": 34,
        "username": "username34",
        "password": "Test1234",
        "firstName": "Michael",
        "lastName": "Martinez",
        "email": "michael.martinez@example.com",
        "birthDate": "1990-03-15",
        "basicSalary": 55000.0,
        "status": "inactive",
        "group": "fish",
        "description": "Lorem ipsum dolor sit amet, consectetur adipiscing elit. Fusce aliquam lorem eu nulla lobortis, sed gravida velit hendrerit."
      },
      {
        "id": 35,
        "username": "username35",
        "password": "Test1234",
        "firstName": "Olivia",
        "lastName": "Roberts",
        "email": "olivia.roberts@example.com",
        "birthDate": "1995-11-02",
        "basicSalary": 65000.0,
        "status": "active",
        "group": "fish",
        "description": "Lorem ipsum dolor sit amet, consectetur adipiscing elit. Fusce aliquam lorem eu nulla lobortis, sed gravida velit hendrerit."
      },
      {
        "id": 36,
        "username": "username36",
        "password": "Test1234",
        "firstName": "Henry",
        "lastName": "Thompson",
        "email": "henry.thompson@example.com",
        "birthDate": "1993-07-19",
        "basicSalary": 75000.0,
        "status": "inactive",
        "group": "fish",
        "description": "Lorem ipsum dolor sit amet, consectetur adipiscing elit. Fusce aliquam lorem eu nulla lobortis, sed gravida velit hendrerit."
      },
      {
        "id": 37,
        "username": "username37",
        "password": "Test1234",
        "firstName": "Evelyn",
        "lastName": "Walker",
        "email": "evelyn.walker@example.com",
        "birthDate": "1991-05-06",
        "basicSalary": 60000.0,
        "status": "active",
        "group": "fish",
        "description": "Lorem ipsum dolor sit amet, consectetur adipiscing elit. Fusce aliquam lorem eu nulla lobortis, sed gravida velit hendrerit."
      },
      {
        "id": 38,
        "username": "username38",
        "password": "Test1234",
        "firstName": "Harper",
        "lastName": "Harris",
        "email": "harper.harris@example.com",
        "birthDate": "1994-02-23",
        "basicSalary": 70000.0,
        "status": "inactive",
        "group": "fish",
        "description": "Lorem ipsum dolor sit amet, consectetur adipiscing elit. Fusce aliquam lorem eu nulla lobortis, sed gravida velit hendrerit."
      },
      {
        "id": 39,
        "username": "username39",
        "password": "Test1234",
        "firstName": "Alexander",
        "lastName": "Clark",
        "email": "alexander.clark@example.com",
        "birthDate": "1992-09-10",
        "basicSalary": 55000.0,
        "status": "active",
        "group": "fish",
        "description": "Lorem ipsum dolor sit amet, consectetur adipiscing elit. Fusce aliquam lorem eu nulla lobortis, sed gravida velit hendrerit."
      },
      {
        "id": 40,
        "username": "username40",
        "password": "Test1234",
        "firstName": "Michael",
        "lastName": "Lewis",
        "email": "michael.lewis@example.com",
        "birthDate": "1990-07-27",
        "basicSalary": 65000.0,
        "status": "inactive",
        "group": "fish",
        "description": "Lorem ipsum dolor sit amet, consectetur adipiscing elit. Fusce aliquam lorem eu nulla lobortis, sed gravida velit hendrerit."
      },
      {
        "id": 41,
        "username": "username41",
        "password": "Test1234",
        "firstName": "Olivia",
        "lastName": "Harris",
        "email": "olivia.harris@example.com",
        "birthDate": "1995-04-14",
        "basicSalary": 75000.0,
        "status": "active",
        "group": "fish",
        "description": "Lorem ipsum dolor sit amet, consectetur adipiscing elit. Fusce aliquam lorem eu nulla lobortis, sed gravida velit hendrerit."
      },
      {
        "id": 42,
        "username": "username42",
        "password": "Test1234",
        "firstName": "Henry",
        "lastName": "Lewis",
        "email": "henry.lewis@example.com",
        "birthDate": "1993-01-01",
        "basicSalary": 60000.0,
        "status": "inactive",
        "group": "fish",
        "description": "Lorem ipsum dolor sit amet, consectetur adipiscing elit. Fusce aliquam lorem eu nulla lobortis, sed gravida velit hendrerit."
      },
      {
        "id": 43,
        "username": "username43",
        "password": "Test1234",
        "firstName": "Evelyn",
        "lastName": "Walker",
        "email": "evelyn.walker@example.com",
        "birthDate": "1991-08-08",
        "basicSalary": 70000.0,
        "status": "active",
        "group": "fish",
        "description": "Lorem ipsum dolor sit amet, consectetur adipiscing elit. Fusce aliquam lorem eu nulla lobortis, sed gravida velit hendrerit."
      },
      {
        "id": 44,
        "username": "username44",
        "password": "Test1234",
        "firstName": "Harper",
        "lastName": "Harris",
        "email": "harper.harris@example.com",
        "birthDate": "1994-05-25",
        "basicSalary": 55000.0,
        "status": "inactive",
        "group": "fish",
        "description": "Lorem ipsum dolor sit amet, consectetur adipiscing elit. Fusce aliquam lorem eu nulla lobortis, sed gravida velit hendrerit."
      },
      {
        "id": 45,
        "username": "username45",
        "password": "Test1234",
        "firstName": "Alexander",
        "lastName": "Clark",
        "email": "alexander.clark@example.com",
        "birthDate": "1992-12-12",
        "basicSalary": 65000.0,
        "status": "active",
        "group": "fish",
        "description": "Lorem ipsum dolor sit amet, consectetur adipiscing elit. Fusce aliquam lorem eu nulla lobortis, sed gravida velit hendrerit."
      },
      {
        "id": 46,
        "username": "username46",
        "password": "Test1234",
        "firstName": "Michael",
        "lastName": "Lewis",
        "email": "michael.lewis@example.com",
        "birthDate": "1990-09-09",
        "basicSalary": 75000.0,
        "status": "inactive",
        "group": "fish",
        "description": "Lorem ipsum dolor sit amet, consectetur adipiscing elit. Fusce aliquam lorem eu nulla lobortis, sed gravida velit hendrerit."
      },
      {
        "id": 47,
        "username": "username47",
        "password": "Test1234",
        "firstName": "Olivia",
        "lastName": "Harris",
        "email": "olivia.harris@example.com",
        "birthDate": "1995-06-06",
        "basicSalary": 60000.0,
        "status": "active",
        "group": "fish",
        "description": "Lorem ipsum dolor sit amet, consectetur adipiscing elit. Fusce aliquam lorem eu nulla lobortis, sed gravida velit hendrerit."
      },
      {
        "id": 48,
        "username": "username48",
        "password": "Test1234",
        "firstName": "Henry",
        "lastName": "Walker",
        "email": "henry.walker@example.com",
        "birthDate": "1993-03-03",
        "basicSalary": 70000.0,
        "status": "inactive",
        "group": "fish",
        "description": "Lorem ipsum dolor sit amet, consectetur adipiscing elit. Fusce aliquam lorem eu nulla lobortis, sed gravida velit hendrerit."
      },
      {
        "id": 49,
        "username": "username49",
        "password": "Test1234",
        "firstName": "Evelyn",
        "lastName": "Harris",
        "email": "evelyn.harris@example.com",
        "birthDate": "1991-10-10",
        "basicSalary": 55000.0,
        "status": "active",
        "group": "fish",
        "description": "Lorem ipsum dolor sit amet, consectetur adipiscing elit. Fusce aliquam lorem eu nulla lobortis, sed gravida velit hendrerit."
      },
      {
        "id": 50,
        "username": "username50",
        "password": "Test1234",
        "firstName": "Harper",
        "lastName": "Clark",
        "email": "harper.clark@example.com",
        "birthDate": "1994-07-07",
        "basicSalary": 65000.0,
        "status": "inactive",
        "group": "fish",
        "description": "Lorem ipsum dolor sit amet, consectetur adipiscing elit. Fusce aliquam lorem eu nulla lobortis, sed gravida velit hendrerit."
      },
      {
        "id": 51,
        "username": "username51",
        "password": "Test1234",
        "firstName": "Alexander",
        "lastName": "Lewis",
        "email": "alexander.lewis@example.com",
        "birthDate": "1992-04-04",
        "basicSalary": 75000.0,
        "status": "active",
        "group": "fish",
        "description": "Lorem ipsum dolor sit amet, consectetur adipiscing elit. Fusce aliquam lorem eu nulla lobortis, sed gravida velit hendrerit."
      },
      {
        "id": 52,
        "username": "username52",
        "password": "Test1234",
        "firstName": "Michael",
        "lastName": "Walker",
        "email": "michael.walker@example.com",
        "birthDate": "1990-11-11",
        "basicSalary": 60000.0,
        "status": "inactive",
        "group": "fish",
        "description": "Lorem ipsum dolor sit amet, consectetur adipiscing elit. Fusce aliquam lorem eu nulla lobortis, sed gravida velit hendrerit."
      },
      {
        "id": 53,
        "username": "username53",
        "password": "Test1234",
        "firstName": "Olivia",
        "lastName": "Harris",
        "email": "olivia.harris@example.com",
        "birthDate": "1995-08-08",
        "basicSalary": 70000.0,
        "status": "active",
        "group": "fish",
        "description": "Lorem ipsum dolor sit amet, consectetur adipiscing elit. Fusce aliquam lorem eu nulla lobortis, sed gravida velit hendrerit."
      },
      {
        "id": 54,
        "username": "username54",
        "password": "Test1234",
        "firstName": "Henry",
        "lastName": "Walker",
        "email": "henry.walker@example.com",
        "birthDate": "1993-05-05",
        "basicSalary": 55000.0,
        "status": "inactive",
        "group": "fish",
        "description": "Lorem ipsum dolor sit amet, consectetur adipiscing elit. Fusce aliquam lorem eu nulla lobortis, sed gravida velit hendrerit."
      },
      {
        "id": 55,
        "username": "username55",
        "password": "Test1234",
        "firstName": "Evelyn",
        "lastName": "Harris",
        "email": "evelyn.harris@example.com",
        "birthDate": "1991-12-12",
        "basicSalary": 65000.0,
        "status": "active",
        "group": "fish",
        "description": "Lorem ipsum dolor sit amet, consectetur adipiscing elit. Fusce aliquam lorem eu nulla lobortis, sed gravida velit hendrerit."
      },
      {
        "id": 56,
        "username": "username56",
        "password": "Test1234",
        "firstName": "Harper",
        "lastName": "Clark",
        "email": "harper.clark@example.com",
        "birthDate": "1994-09-09",
        "basicSalary": 75000.0,
        "status": "inactive",
        "group": "fish",
        "description": "Lorem ipsum dolor sit amet, consectetur adipiscing elit. Fusce aliquam lorem eu nulla lobortis, sed gravida velit hendrerit."
      },
      {
        "id": 57,
        "username": "username57",
        "password": "Test1234",
        "firstName": "Alexander",
        "lastName": "Lewis",
        "email": "alexander.lewis@example.com",
        "birthDate": "1992-06-06",
        "basicSalary": 60000.0,
        "status": "active",
        "group": "fish",
        "description": "Lorem ipsum dolor sit amet, consectetur adipiscing elit. Fusce aliquam lorem eu nulla lobortis, sed gravida velit hendrerit."
      },
      {
        "id": 58,
        "username": "username58",
        "password": "Test1234",
        "firstName": "Michael",
        "lastName": "Walker",
        "email": "michael.walker@example.com",
        "birthDate": "1990-01-01",
        "basicSalary": 70000.0,
        "status": "inactive",
        "group": "fish",
        "description": "Lorem ipsum dolor sit amet, consectetur adipiscing elit. Fusce aliquam lorem eu nulla lobortis, sed gravida velit hendrerit."
      },
      {
        "id": 59,
        "username": "username59",
        "password": "Test1234",
        "firstName": "Olivia",
        "lastName": "Harris",
        "email": "olivia.harris@example.com",
        "birthDate": "1995-02-02",
        "basicSalary": 55000.0,
        "status": "active",
        "group": "fish",
        "description": "Lorem ipsum dolor sit amet, consectetur adipiscing elit. Fusce aliquam lorem eu nulla lobortis, sed gravida velit hendrerit."
      },
      {
        "id": 60,
        "username": "username60",
        "password": "Test1234",
        "firstName": "Henry",
        "lastName": "Walker",
        "email": "henry.walker@example.com",
        "birthDate": "1993-03-03",
        "basicSalary": 65000.0,
        "status": "inactive",
        "group": "fish",
        "description": "Lorem ipsum dolor sit amet, consectetur adipiscing elit. Fusce aliquam lorem eu nulla lobortis, sed gravida velit hendrerit."
      },
      {
        "id": 61,
        "username": "username61",
        "password": "Test1234",
        "firstName": "Evelyn",
        "lastName": "Harris",
        "email": "evelyn.harris@example.com",
        "birthDate": "1991-04-04",
        "basicSalary": 75000.0,
        "status": "active",
        "group": "fish",
        "description": "Lorem ipsum dolor sit amet, consectetur adipiscing elit. Fusce aliquam lorem eu nulla lobortis, sed gravida velit hendrerit."
      },
      {
        "id": 62,
        "username": "username62",
        "password": "Test1234",
        "firstName": "Harper",
        "lastName": "Clark",
        "email": "harper.clark@example.com",
        "birthDate": "1994-05-05",
        "basicSalary": 60000.0,
        "status": "inactive",
        "group": "fish",
        "description": "Lorem ipsum dolor sit amet, consectetur adipiscing elit. Fusce aliquam lorem eu nulla lobortis, sed gravida velit hendrerit."
      },
      {
        "id": 63,
        "username": "username63",
        "password": "Test1234",
        "firstName": "Alexander",
        "lastName": "Lewis",
        "email": "alexander.lewis@example.com",
        "birthDate": "1992-06-06",
        "basicSalary": 70000.0,
        "status": "active",
        "group": "fish",
        "description": "Lorem ipsum dolor sit amet, consectetur adipiscing elit. Fusce aliquam lorem eu nulla lobortis, sed gravida velit hendrerit."
      },
      {
        "id": 64,
        "username": "username64",
        "password": "Test1234",
        "firstName": "Michael",
        "lastName": "Walker",
        "email": "michael.walker@example.com",
        "birthDate": "1990-07-07",
        "basicSalary": 55000.0,
        "status": "inactive",
        "group": "fish",
        "description": "Lorem ipsum dolor sit amet, consectetur adipiscing elit. Fusce aliquam lorem eu nulla lobortis, sed gravida velit hendrerit."
      },
      {
        "id": 65,
        "username": "username65",
        "password": "Test1234",
        "firstName": "Olivia",
        "lastName": "Harris",
        "email": "olivia.harris@example.com",
        "birthDate": "1995-08-08",
        "basicSalary": 65000.0,
        "status": "active",
        "group": "fish",
        "description": "Lorem ipsum dolor sit amet, consectetur adipiscing elit. Fusce aliquam lorem eu nulla lobortis, sed gravida velit hendrerit."
      },
      {
        "id": 66,
        "username": "username66",
        "password": "Test1234",
        "firstName": "Henry",
        "lastName": "Walker",
        "email": "henry.walker@example.com",
        "birthDate": "1993-09-09",
        "basicSalary": 75000.0,
        "status": "inactive",
        "group": "fish",
        "description": "Lorem ipsum dolor sit amet, consectetur adipiscing elit. Fusce aliquam lorem eu nulla lobortis, sed gravida velit hendrerit."
      },
      {
        "id": 67,
        "username": "username67",
        "password": "Test1234",
        "firstName": "Evelyn",
        "lastName": "Harris",
        "email": "evelyn.harris@example.com",
        "birthDate": "1991-10-10",
        "basicSalary": 60000.0,
        "status": "active",
        "group": "fish",
        "description": "Lorem ipsum dolor sit amet, consectetur adipiscing elit. Fusce aliquam lorem eu nulla lobortis, sed gravida velit hendrerit."
      },
      {
        "id": 68,
        "username": "username68",
        "password": "Test1234",
        "firstName": "Harper",
        "lastName": "Clark",
        "email": "harper.clark@example.com",
        "birthDate": "1994-11-11",
        "basicSalary": 70000.0,
        "status": "inactive",
        "group": "fish",
        "description": "Lorem ipsum dolor sit amet, consectetur adipiscing elit. Fusce aliquam lorem eu nulla lobortis, sed gravida velit hendrerit."
      },
      {
        "id": 69,
        "username": "username69",
        "password": "Test1234",
        "firstName": "Alexander",
        "lastName": "Lewis",
        "email": "alexander.lewis@example.com",
        "birthDate": "1992-12-12",
        "basicSalary": 55000.0,
        "status": "active",
        "group": "fish",
        "description": "Lorem ipsum dolor sit amet, consectetur adipiscing elit. Fusce aliquam lorem eu nulla lobortis, sed gravida velit hendrerit."
      },
      {
        "id": 70,
        "username": "username70",
        "password": "Test1234",
        "firstName": "Michael",
        "lastName": "Walker",
        "email": "michael.walker@example.com",
        "birthDate": "1990-01-01",
        "basicSalary": 65000.0,
        "status": "inactive",
        "group": "fish",
        "description": "Lorem ipsum dolor sit amet, consectetur adipiscing elit. Fusce aliquam lorem eu nulla lobortis, sed gravida velit hendrerit."
      },
      {
        "id": 71,
        "username": "username71",
        "password": "Test1234",
        "firstName": "Olivia",
        "lastName": "Harris",
        "email": "olivia.harris@example.com",
        "birthDate": "1995-02-02",
        "basicSalary": 75000.0,
        "status": "active",
        "group": "fish",
        "description": "Lorem ipsum dolor sit amet, consectetur adipiscing elit. Fusce aliquam lorem eu nulla lobortis, sed gravida velit hendrerit."
      },
      {
        "id": 72,
        "username": "username72",
        "password": "Test1234",
        "firstName": "Henry",
        "lastName": "Walker",
        "email": "henry.walker@example.com",
        "birthDate": "1993-03-03",
        "basicSalary": 60000.0,
        "status": "inactive",
        "group": "fish",
        "description": "Lorem ipsum dolor sit amet, consectetur adipiscing elit. Fusce aliquam lorem eu nulla lobortis, sed gravida velit hendrerit."
      },
      {
        "id": 73,
        "username": "username73",
        "password": "Test1234",
        "firstName": "Evelyn",
        "lastName": "Harris",
        "email": "evelyn.harris@example.com",
        "birthDate": "1991-04-04",
        "basicSalary": 70000.0,
        "status": "active",
        "group": "fish",
        "description": "Lorem ipsum dolor sit amet, consectetur adipiscing elit. Fusce aliquam lorem eu nulla lobortis, sed gravida velit hendrerit."
      },
      {
        "id": 74,
        "username": "username74",
        "password": "Test1234",
        "firstName": "Harper",
        "lastName": "Clark",
        "email": "harper.clark@example.com",
        "birthDate": "1994-05-05",
        "basicSalary": 55000.0,
        "status": "inactive",
        "group": "fish",
        "description": "Lorem ipsum dolor sit amet, consectetur adipiscing elit. Fusce aliquam lorem eu nulla lobortis, sed gravida velit hendrerit."
      },
      {
        "id": 75,
        "username": "username75",
        "password": "Test1234",
        "firstName": "Alexander",
        "lastName": "Lewis",
        "email": "alexander.lewis@example.com",
        "birthDate": "1992-06-06",
        "basicSalary": 65000.0,
        "status": "active",
        "group": "fish",
        "description": "Lorem ipsum dolor sit amet, consectetur adipiscing elit. Fusce aliquam lorem eu nulla lobortis, sed gravida velit hendrerit."
      },
      {
        "id": 76,
        "username": "username76",
        "password": "Test1234",
        "firstName": "Michael",
        "lastName": "Walker",
        "email": "michael.walker@example.com",
        "birthDate": "1990-07-07",
        "basicSalary": 75000.0,
        "status": "inactive",
        "group": "fish",
        "description": "Lorem ipsum dolor sit amet, consectetur adipiscing elit. Fusce aliquam lorem eu nulla lobortis, sed gravida velit hendrerit."
      },
      {
        "id": 77,
        "username": "username77",
        "password": "Test1234",
        "firstName": "Olivia",
        "lastName": "Harris",
        "email": "olivia.harris@example.com",
        "birthDate": "1995-08-08",
        "basicSalary": 60000.0,
        "status": "active",
        "group": "fish",
        "description": "Lorem ipsum dolor sit amet, consectetur adipiscing elit. Fusce aliquam lorem eu nulla lobortis, sed gravida velit hendrerit."
      },
      {
        "id": 78,
        "username": "username78",
        "password": "Test1234",
        "firstName": "Henry",
        "lastName": "Walker",
        "email": "henry.walker@example.com",
        "birthDate": "1993-09-09",
        "basicSalary": 70000.0,
        "status": "inactive",
        "group": "fish",
        "description": "Lorem ipsum dolor sit amet, consectetur adipiscing elit. Fusce aliquam lorem eu nulla lobortis, sed gravida velit hendrerit."
      },
      {
        "id": 79,
        "username": "username79",
        "password": "Test1234",
        "firstName": "Evelyn",
        "lastName": "Harris",
        "email": "evelyn.harris@example.com",
        "birthDate": "1991-10-10",
        "basicSalary": 55000.0,
        "status": "active",
        "group": "fish",
        "description": "Lorem ipsum dolor sit amet, consectetur adipiscing elit. Fusce aliquam lorem eu nulla lobortis, sed gravida velit hendrerit."
      },
      {
        "id": 80,
        "username": "username80",
        "password": "Test1234",
        "firstName": "Harper",
        "lastName": "Clark",
        "email": "harper.clark@example.com",
        "birthDate": "1994-11-11",
        "basicSalary": 65000.0,
        "status": "inactive",
        "group": "fish",
        "description": "Lorem ipsum dolor sit amet, consectetur adipiscing elit. Fusce aliquam lorem eu nulla lobortis, sed gravida velit hendrerit."
      },
      {
        "id": 81,
        "username": "username81",
        "password": "Test1234",
        "firstName": "Alexander",
        "lastName": "Lewis",
        "email": "alexander.lewis@example.com",
        "birthDate": "1992-12-12",
        "basicSalary": 75000.0,
        "status": "active",
        "group": "fish",
        "description": "Lorem ipsum dolor sit amet, consectetur adipiscing elit. Fusce aliquam lorem eu nulla lobortis, sed gravida velit hendrerit."
      },
      {
        "id": 82,
        "username": "username82",
        "password": "Test1234",
        "firstName": "Michael",
        "lastName": "Walker",
        "email": "michael.walker@example.com",
        "birthDate": "1990-01-01",
        "basicSalary": 60000.0,
        "status": "inactive",
        "group": "fish",
        "description": "Lorem ipsum dolor sit amet, consectetur adipiscing elit. Fusce aliquam lorem eu nulla lobortis, sed gravida velit hendrerit."
      },
      {
        "id": 83,
        "username": "username83",
        "password": "Test1234",
        "firstName": "Olivia",
        "lastName": "Harris",
        "email": "olivia.harris@example.com",
        "birthDate": "1995-02-02",
        "basicSalary": 70000.0,
        "status": "active",
        "group": "fish",
        "description": "Lorem ipsum dolor sit amet, consectetur adipiscing elit. Fusce aliquam lorem eu nulla lobortis, sed gravida velit hendrerit."
      },
      {
        "id": 84,
        "username": "username84",
        "password": "Test1234",
        "firstName": "Henry",
        "lastName": "Walker",
        "email": "henry.walker@example.com",
        "birthDate": "1993-03-03",
        "basicSalary": 55000.0,
        "status": "inactive",
        "group": "fish",
        "description": "Lorem ipsum dolor sit amet, consectetur adipiscing elit. Fusce aliquam lorem eu nulla lobortis, sed gravida velit hendrerit."
      },
      {
        "id": 85,
        "username": "username85",
        "password": "Test1234",
        "firstName": "Evelyn",
        "lastName": "Harris",
        "email": "evelyn.harris@example.com",
        "birthDate": "1991-04-04",
        "basicSalary": 65000.0,
        "status": "active",
        "group": "fish",
        "description": "Lorem ipsum dolor sit amet, consectetur adipiscing elit. Fusce aliquam lorem eu nulla lobortis, sed gravida velit hendrerit."
      },
      {
        "id": 86,
        "username": "username86",
        "password": "Test1234",
        "firstName": "Harper",
        "lastName": "Clark",
        "email": "harper.clark@example.com",
        "birthDate": "1994-05-05",
        "basicSalary": 75000.0,
        "status": "inactive",
        "group": "fish",
        "description": "Lorem ipsum dolor sit amet, consectetur adipiscing elit. Fusce aliquam lorem eu nulla lobortis, sed gravida velit hendrerit."
      },
      {
        "id": 87,
        "username": "username87",
        "password": "Test1234",
        "firstName": "Alexander",
        "lastName": "Lewis",
        "email": "alexander.lewis@example.com",
        "birthDate": "1992-06-06",
        "basicSalary": 60000.0,
        "status": "active",
        "group": "fish",
        "description": "Lorem ipsum dolor sit amet, consectetur adipiscing elit. Fusce aliquam lorem eu nulla lobortis, sed gravida velit hendrerit."
      },
      {
        "id": 88,
        "username": "username88",
        "password": "Test1234",
        "firstName": "Michael",
        "lastName": "Walker",
        "email": "michael.walker@example.com",
        "birthDate": "1990-07-07",
        "basicSalary": 70000.0,
        "status": "inactive",
        "group": "fish",
        "description": "Lorem ipsum dolor sit amet, consectetur adipiscing elit. Fusce aliquam lorem eu nulla lobortis, sed gravida velit hendrerit."
      },
      {
        "id": 89,
        "username": "username89",
        "password": "Test1234",
        "firstName": "Olivia",
        "lastName": "Harris",
        "email": "olivia.harris@example.com",
        "birthDate": "1995-08-08",
        "basicSalary": 55000.0,
        "status": "active",
        "group": "fish",
        "description": "Lorem ipsum dolor sit amet, consectetur adipiscing elit. Fusce aliquam lorem eu nulla lobortis, sed gravida velit hendrerit."
      },
      {
        "id": 90,
        "username": "username90",
        "password": "Test1234",
        "firstName": "Henry",
        "lastName": "Walker",
        "email": "henry.walker@example.com",
        "birthDate": "1993-09-09",
        "basicSalary": 65000.0,
        "status": "inactive",
        "group": "fish",
        "description": "Lorem ipsum dolor sit amet, consectetur adipiscing elit. Fusce aliquam lorem eu nulla lobortis, sed gravida velit hendrerit."
      },
      {
        "id": 91,
        "username": "username91",
        "password": "Test1234",
        "firstName": "Evelyn",
        "lastName": "Harris",
        "email": "evelyn.harris@example.com",
        "birthDate": "1991-10-10",
        "basicSalary": 75000.0,
        "status": "active",
        "group": "fish",
        "description": "Lorem ipsum dolor sit amet, consectetur adipiscing elit. Fusce aliquam lorem eu nulla lobortis, sed gravida velit hendrerit."
      },
      {
        "id": 92,
        "username": "username92",
        "password": "Test1234",
        "firstName": "Harper",
        "lastName": "Clark",
        "email": "harper.clark@example.com",
        "birthDate": "1994-11-11",
        "basicSalary": 60000.0,
        "status": "inactive",
        "group": "fish",
        "description": "Lorem ipsum dolor sit amet, consectetur adipiscing elit. Fusce aliquam lorem eu nulla lobortis, sed gravida velit hendrerit."
      },
      {
        "id": 93,
        "username": "username93",
        "password": "Test1234",
        "firstName": "Alexander",
        "lastName": "Lewis",
        "email": "alexander.lewis@example.com",
        "birthDate": "1992-12-12",
        "basicSalary": 70000.0,
        "status": "active",
        "group": "fish",
        "description": "Lorem ipsum dolor sit amet, consectetur adipiscing elit. Fusce aliquam lorem eu nulla lobortis, sed gravida velit hendrerit."
      },
      {
        "id": 94,
        "username": "username94",
        "password": "Test1234",
        "firstName": "Michael",
        "lastName": "Walker",
        "email": "michael.walker@example.com",
        "birthDate": "1990-01-01",
        "basicSalary": 55000.0,
        "status": "inactive",
        "group": "fish",
        "description": "Lorem ipsum dolor sit amet, consectetur adipiscing elit. Fusce aliquam lorem eu nulla lobortis, sed gravida velit hendrerit."
      },
      {
        "id": 95,
        "username": "username95",
        "password": "Test1234",
        "firstName": "Olivia",
        "lastName": "Harris",
        "email": "olivia.harris@example.com",
        "birthDate": "1995-02-02",
        "basicSalary": 65000.0,
        "status": "active",
        "group": "fish",
        "description": "Lorem ipsum dolor sit amet, consectetur adipiscing elit. Fusce aliquam lorem eu nulla lobortis, sed gravida velit hendrerit."
      },
      {
        "id": 96,
        "username": "username96",
        "password": "Test1234",
        "firstName": "Henry",
        "lastName": "Walker",
        "email": "henry.walker@example.com",
        "birthDate": "1993-03-03",
        "basicSalary": 75000.0,
        "status": "inactive",
        "group": "fish",
        "description": "Lorem ipsum dolor sit amet, consectetur adipiscing elit. Fusce aliquam lorem eu nulla lobortis, sed gravida velit hendrerit."
      },
      {
        "id": 97,
        "username": "username97",
        "password": "Test1234",
        "firstName": "Evelyn",
        "lastName": "Harris",
        "email": "evelyn.harris@example.com",
        "birthDate": "1991-04-04",
        "basicSalary": 60000.0,
        "status": "active",
        "group": "fish",
        "description": "Lorem ipsum dolor sit amet, consectetur adipiscing elit. Fusce aliquam lorem eu nulla lobortis, sed gravida velit hendrerit."
      },
      {
        "id": 98,
        "username": "username98",
        "password": "Test1234",
        "firstName": "Harper",
        "lastName": "Clark",
        "email": "harper.clark@example.com",
        "birthDate": "1994-05-05",
        "basicSalary": 70000.0,
        "status": "inactive",
        "group": "fish",
        "description": "Lorem ipsum dolor sit amet, consectetur adipiscing elit. Fusce aliquam lorem eu nulla lobortis, sed gravida velit hendrerit."
      },
      {
        "id": 99,
        "username": "username99",
        "password": "Test1234",
        "firstName": "Alexander",
        "lastName": "Lewis",
        "email": "alexander.lewis@example.com",
        "birthDate": "1992-06-06",
        "basicSalary": 55000.0,
        "status": "active",
        "group": "fish",
        "description": "Lorem ipsum dolor sit amet, consectetur adipiscing elit. Fusce aliquam lorem eu nulla lobortis, sed gravida velit hendrerit."
      },
      {
        "id": 100,
        "username": "username100",
        "password": "Test1234",
        "firstName": "Michael",
        "lastName": "Walker",
        "email": "michael.walker@example.com",
        "birthDate": "1990-07-07",
        "basicSalary": 65000.0,
        "status": "inactive",
        "group": "fish",
        "description": "Lorem ipsum dolor sit amet, consectetur adipiscing elit. Fusce aliquam lorem eu nulla lobortis, sed gravida velit hendrerit."
      }
      
    ]
  }
  
